single-cycle-MIPSprocessor/processador.vcd
$date
	Sun Feb 09 17:25:09 2025
$end
$version
	Icarus Verilog
$end
$timescale
	1ns
$end
$scope module Simulacao $end
$var reg 1 ! clk $end
$var reg 1 " reset $end
$scope module processador $end
$var wire 32 # alu_src_b [31:0] $end
$var wire 1 ! clk $end
$var wire 1 " reset $end
$var wire 32 $ write_data [31:0] $end
$var wire 5 % write_register [4:0] $end
$var wire 1 & zero $end
$var wire 32 ' sign_extended [31:0] $end
$var wire 1 ( reg_write $end
$var wire 1 ) reg_dst $end
$var wire 32 * read_data_mem [31:0] $end
$var wire 32 + read_data2 [31:0] $end
$var wire 32 , read_data1 [31:0] $end
$var wire 32 - prox_pc [31:0] $end
$var wire 32 . pc_jump [31:0] $end
$var wire 32 / pc_incrementado [31:0] $end
$var wire 32 0 pc_desvio [31:0] $end
$var wire 1 1 mem_write $end
$var wire 1 2 mem_to_reg $end
$var wire 1 3 mem_read $end
$var wire 1 4 jump $end
$var wire 32 5 instruction [31:0] $end
$var wire 32 6 endereco_deslocado [31:0] $end
$var wire 1 7 branch $end
$var wire 1 8 alu_src $end
$var wire 32 9 alu_result [31:0] $end
$var wire 2 : alu_op [1:0] $end
$var wire 4 ; alu_control [3:0] $end
$var reg 32 < pc [31:0] $end
$scope module Control $end
$var wire 6 = opcode [5:0] $end
$var reg 2 > ALUOp [1:0] $end
$var reg 1 8 ALUSrc $end
$var reg 1 7 Branch $end
$var reg 1 4 Jump $end
$var reg 1 3 MemRead $end
$var reg 1 1 MemWrite $end
$var reg 1 2 MemtoReg $end
$var reg 1 ) RegDst $end
$var reg 1 ( RegWrite $end
$upscope $end
$scope module DM $end
$var wire 1 3 MemRead $end
$var wire 1 1 MemWrite $end
$var wire 1 ! clk $end
$var wire 32 ? writeData [31:0] $end
$var wire 32 @ readData [31:0] $end
$var wire 32 A address [31:0] $end
$var integer 32 B i [31:0] $end
$upscope $end
$scope module MI $end
$var wire 32 C addr [31:0] $end
$var wire 32 D instrucao [31:0] $end
$var integer 32 E i [31:0] $end
$upscope $end
$scope module RF $end
$var wire 32 F ReadData1 [31:0] $end
$var wire 32 G ReadData2 [31:0] $end
$var wire 5 H ReadRegister1 [4:0] $end
$var wire 5 I ReadRegister2 [4:0] $end
$var wire 1 ( RegWrite $end
$var wire 32 J WriteData [31:0] $end
$var wire 5 K WriteRegister [4:0] $end
$var wire 1 ! clk $end
$var integer 32 L i [31:0] $end
$upscope $end
$scope module SE $end
$var wire 16 M in [15:0] $end
$var wire 32 N out [31:0] $end
$upscope $end
$scope module add4 $end
$var wire 32 O in [31:0] $end
$var wire 32 P out [31:0] $end
$upscope $end
$scope module alu $end
$var wire 32 Q A [31:0] $end
$var wire 32 R B [31:0] $end
$var wire 1 & Zero $end
$var wire 4 S ALUOperation [3:0] $end
$var reg 32 T ALUResult [31:0] $end
$upscope $end
$scope module alu_ctrl $end
$var wire 2 U ALUOp [1:0] $end
$var wire 6 V funct [5:0] $end
$var reg 4 W ALUControl [3:0] $end
$upscope $end
$scope module desloca_esquerda_2 $end
$var wire 32 X in [31:0] $end
$var wire 32 Y out [31:0] $end
$upscope $end
$scope module mux_alu_src $end
$var wire 32 Z entrada0 [31:0] $end
$var wire 32 [ entrada1 [31:0] $end
$var wire 32 \ saida [31:0] $end
$var wire 1 8 sel $end
$var wire 1 ] out $end
$upscope $end
$scope module mux_mem_to_reg $end
$var wire 32 ^ entrada0 [31:0] $end
$var wire 32 _ entrada1 [31:0] $end
$var wire 32 ` saida [31:0] $end
$var wire 1 2 sel $end
$var wire 1 a out $end
$upscope $end
$scope module mux_reg_dst $end
$var wire 5 b entrada0 [4:0] $end
$var wire 5 c entrada1 [4:0] $end
$var wire 5 d saida [4:0] $end
$var wire 1 ) sel $end
$var wire 1 e out $end
$upscope $end
$scope module somador_desvio $end
$var wire 32 f a [31:0] $end
$var wire 32 g b [31:0] $end
$var wire 32 h sum [31:0] $end
$upscope $end
$upscope $end
$upscope $end
$enddefinitions $end
$comment Show the parameter values. $end
$dumpall
$end
#0
$dumpvars
bx h
bx00 g
bx f
xe
bz d
bx c
bx b
0a
bz `
b0 _
b0 ^
x]
bz \
bx [
bx Z
bx00 Y
bx X
bx W
bx V
bx U
b0 T
bx S
bz R
bx Q
bx P
bx O
bx N
bx M
b100000 L
bz K
bz J
bx I
bx H
bx G
bx F
b100000000 E
bx D
bx C
b100000000 B
b0 A
b0 @
bx ?
bx >
bx =
bx <
bx ;
bx :
b0 9
x8
x7
bx00 6
bx 5
x4
x3
x2
x1
bx 0
bx /
b0xxxxxxxxxxxxxxxxxxxxxxxxxxx00 .
bx -
bx ,
bx +
b0 *
x)
x(
bx '
1&
bz %
bz $
bz #
0"
0!
$end
#5
1!
#10
xa
b100 -
x&
bx 9
bx A
bx T
bx ^
b11000 0
b11000 h
0e
1]
b10 ;
b10 S
b10 W
b10100 6
b10100 Y
b10100 g
04
1(
18
01
b0 :
b0 >
b0 U
02
03
07
0)
b101 V
b101 '
b101 N
b101 X
b101 [
b101 M
b0 c
b1000 b
b0 +
b0 ?
b0 G
b0 Z
b1000 I
b0 ,
b0 F
b0 Q
b0 H
b1000 =
b100000000010000000000000000101 5
b100000000010000000000000000101 D
b1000000000000000010100 .
b100 /
b100 P
b100 f
b0 <
b0 C
b0 O
0!
1"
#15
1!
#20
0!
#25
1!
#30
0!
0"
#35
1e
b1100 6
b1100 Y
b1100 g
b11 V
b11 '
b11 N
b11 X
b11 [
b11 M
b1001 b
b1001 I
b1000 -
b100000000010010000000000000011 5
b100000000010010000000000000011 D
b10000001001000000000000001100 .
b10100 0
b10100 h
b1000 /
b1000 P
b1000 f
b100 <
b100 C
b100 O
1!
#40
0!
#45
0e
0]
b10100000010000000 6
b10100000010000000 Y
b10100000010000000 g
b10 :
b10 >
b10 U
1)
1(
08
b10100001001010100000010000000 .
b100000 V
b101000000100000 '
b101000000100000 N
b101000000100000 X
b101000000100000 [
b101000000100000 M
b1010 c
b1000 H
b0 =
b1100 -
b1000010010101000000100000 5
b1000010010101000000100000 D
b10100000010001100 0
b10100000010001100 h
b1100 /
b1100 P
b1100 f
b1000 <
b1000 C
b1000 O
1!
#50
0!
#55
1e
b110 ;
b110 S
b110 W
b10110000010001000 6
b10110000010001000 Y
b10110000010001000 g
b100010 V
b101100000100010 '
b101100000100010 N
b101100000100010 X
b101100000100010 [
b101100000100010 M
b1011 c
b10000 -
b1000010010101100000100010 5
b1000010010101100000100010 D
b100001001010110000010001000 .
b10110000010011000 0
b10110000010011000 h
b10000 /
b10000 P
b10000 f
b1100 <
b1100 C
b1100 O
1!
#60
0!
#65
0e
b10 ;
b10 S
b10 W
b0 6
b0 Y
b0 g
11
18
0(
b0 :
b0 >
b0 U
0)
b1010000000000000000000 .
b0 V
b0 '
b0 N
b0 X
b0 [
b0 M
b0 c
b1010 b
b1010 I
b0 H
b101011 =
b10100 -
b10101100000010100000000000000000 5
b10101100000010100000000000000000 D
b10100 0
b10100 h
b10100 /
b10100 P
b10100 f
b10000 <
b10000 C
b10000 O
1!
#70
0!
#75
xa
bx *
bx @
bx _
13
1(
12
18
01
b1100 b
b1100 I
b100011 =
b11000 -
b10001100000011000000000000000000 5
b10001100000011000000000000000000 D
b10000001100000000000000000000 .
b11000 0
b11000 h
b11000 /
b11000 P
b11000 f
b10100 <
b10100 C
b10100 O
1!
#80
0!
#85
b0 *
b0 @
b0 _
b110 ;
b110 S
b110 W
b1000 6
b1000 Y
b1000 g
b1 :
b1 >
b1 U
17
0(
08
02
03
b10110001010000000000000001000 .
b10 V
b10 '
b10 N
b10 X
b10 [
b10 M
b1010 b
b1010 I
b1100 H
b100 =
b0xxx100 -
b10001100010100000000000000010 5
b10001100010100000000000000010 D
b100100 0
b100100 h
b11100 /
b11100 P
b11100 f
b11000 <
b11000 C
b11000 O
1!
#90
0!
#95
b10 ;
b10 S
b10 W
b101000 6
b101000 Y
b101000 g
14
b0 :
b0 >
b0 U
07
b1010 V
b1010 '
b1010 N
b1010 X
b1010 [
b1010 M
b0 b
b0 I
b0 H
b10 =
b101000 -
b1000000000000000000000001010 5
b1000000000000000000000001010 D
b101000 .
b1001000 0
b1001000 h
b100000 /
b100000 P
b100000 f
b11100 <
b11100 C
b11100 O
1!
#100
0!
#105
b1010000 6
b1010000 Y
b1010000 g
1(
18
04
b101100 -
b10100 V
b10100 '
b10100 N
b10100 X
b10100 [
b10100 M
b1010 b
b1010 I
b1000 =
b10000001010000000000001010000 .
b100000000010100000000000010100 5
b100000000010100000000000010100 D
b1111100 0
b1111100 h
b101100 /
b101100 P
b101100 f
b101000 <
b101000 C
b101000 O
1!
#110
0!
#115
b10000 6
b10000 Y
b10000 g
11
0(
18
b100 V
b100 '
b100 N
b100 X
b100 [
b100 M
b101011 =
b110000 -
b10101100000010100000000000000100 5
b10101100000010100000000000000100 D
b1010000000000000010000 .
b1000000 0
b1000000 h
b110000 /
b110000 P
b110000 f
b101100 <
b101100 C
b101100 O
1!
#120
0!
#125
0a
1&
b0 9
b0 A
b0 T
b0 ^
b0 ;
b0 S
b0 W
b0 6
b0 Y
b0 g
b10 :
b10 >
b10 U
1(
1)
08
01
b0 .
b0 V
b0 '
b0 N
b0 X
b0 [
b0 M
b0 b
b0 I
b0 =
b110100 -
b0 5
b0 D
b110100 0
b110100 h
b110100 /
b110100 P
b110100 f
b110000 <
b110000 C
b110000 O
1!
